<svg width="126" height="34" viewBox="0 0 126 34" fill="none" xmlns="http://www.w3.org/2000/svg">
<path d="M119.221 4.00061C122.971 5.16438 125.816 8.78498 125.816 12.9228C125.816 18.0951 121.678 22.2329 116.506 22.2329C112.497 22.2329 108.748 19.9054 107.454 16.4141L110.299 14.2159C110.946 16.802 113.791 18.871 116.506 18.871C119.739 18.871 122.454 16.1555 122.454 12.9228C122.454 9.69013 119.739 6.97468 116.377 6.97468L119.221 4.00061Z" fill="white"/>
<path d="M104.481 16.285C103.187 19.9056 99.5669 22.3624 95.429 22.3624C90.2567 22.3624 86.1189 18.2246 86.1189 13.0523C86.1189 7.88002 90.2567 3.74219 95.429 3.74219C97.8859 3.74219 100.084 4.64734 101.765 6.19903L99.5669 8.65587C98.5324 7.75072 97.11 7.10418 95.5583 7.10418C92.3257 7.10418 89.6102 9.81963 89.6102 13.0523C89.6102 16.285 92.3257 19.0005 95.5583 19.0005C98.4031 19.0005 101.248 16.5436 101.894 13.9575" fill="white"/>
<path d="M102.929 7.23333L100.472 9.81948L105.903 15.509L120.644 0.250732H115.472L105.903 10.2074L102.929 7.23333Z" fill="white"/>
<path d="M14.3534 18.6124V22.1037H0.000244141V4.13H14.0947V7.6213H3.87946V11.2419H12.6724V14.4746H3.87946V18.4831H14.3534V18.6124Z" fill="white"/>
<path d="M30.7753 16.9315C30.7753 20.9401 27.1547 22.4918 23.1462 22.4918C20.3014 22.4918 17.9739 21.7159 16.6808 20.9401V17.0608C18.4911 18.3539 20.56 19.2591 23.1462 19.2591C25.2151 19.2591 26.6375 18.7418 26.6375 17.3195C26.6375 13.9575 16.6808 15.6385 16.6808 9.3024C16.6808 5.42318 20.3014 3.74219 24.0513 3.74219C26.5081 3.74219 28.5771 4.51803 29.8701 5.29388V9.1731C28.5771 8.13864 26.5081 7.10418 23.922 7.10418C21.8531 7.10418 20.6893 7.88002 20.6893 9.04379C20.6893 12.1472 30.7753 10.0782 30.7753 16.9315Z" fill="white"/>
<path d="M48.8784 10.3368C48.8784 13.5694 46.4216 16.5435 41.6372 16.5435H36.8529V22.233H32.9736V4.13H41.6372C46.5509 4.13 48.8784 7.10407 48.8784 10.3368ZM44.7406 10.3368C44.7406 8.52645 43.4475 7.36269 41.2493 7.36269H36.9822V13.1815H41.2493C43.4475 13.1815 44.7406 12.1471 44.7406 10.3368Z" fill="white"/>
<path d="M65.6883 18.6124V22.1037H51.3352V4.13H65.4297V7.6213H55.3437V11.2419H64.1366V14.4746H55.3437V18.4831H65.6883V18.6124Z" fill="white"/>
<path d="M79.7827 22.1037L75.257 15.897H71.895V22.1037H68.0157V4.13H76.6793C81.4637 4.13 83.9206 7.10407 83.9206 9.94884C83.9206 12.2764 82.3689 14.6039 79.5241 15.5091L84.4378 22.1037H79.7827ZM71.895 12.6643H76.2914C78.4896 12.6643 79.6534 11.7591 79.6534 9.94884C79.6534 8.26784 78.4896 7.36269 76.2914 7.36269H71.895V12.6643Z" fill="white"/>
<path d="M6.98279 27.7933L8.66378 31.6726L10.2155 27.7933H10.9913L8.9224 32.5777H8.14655L6.07764 27.7933H6.98279Z" fill="white"/>
<path d="M11.6379 30.7675C11.6379 29.733 12.4138 28.9572 13.4482 28.9572C14.4827 28.9572 15.2585 29.733 15.2585 30.7675C15.2585 31.8019 14.4827 32.5778 13.4482 32.5778C12.4138 32.5778 11.6379 31.8019 11.6379 30.7675ZM14.612 30.7675C14.612 30.1209 14.0948 29.6037 13.4482 29.6037C12.8017 29.6037 12.2845 30.1209 12.2845 30.7675C12.2845 31.414 12.8017 31.9312 13.4482 31.9312C14.2241 31.9312 14.612 31.414 14.612 30.7675Z" fill="white"/>
<path d="M19.0083 31.6724V32.3189C18.7497 32.5775 18.4911 32.5776 18.1031 32.5776C17.5859 32.5776 16.8101 32.3189 16.8101 31.2845V28.3104L17.5859 27.9225V28.9569H18.879V29.6035H17.5859V31.2845C17.5859 31.8017 17.8445 31.931 18.2324 31.931C18.4911 31.931 18.7497 31.8017 19.0083 31.6724Z" fill="white"/>
<path d="M21.7239 30.7675V31.9312H22.6291V32.5778H20.1722V31.9312H20.9481V29.733H20.1722V29.0865H21.5946V29.733C21.8532 29.3451 22.3705 28.9572 23.017 28.9572V29.9916C22.8877 29.8623 22.6291 29.8623 22.4998 29.8623C22.1119 29.733 21.7239 30.1209 21.7239 30.7675Z" fill="white"/>
<path d="M27.5428 30.8968H24.8273C24.9566 31.5433 25.3446 31.9312 26.1204 31.9312C26.5083 31.9312 26.8962 31.8019 27.2842 31.5433V32.3191C26.8962 32.5778 26.5083 32.5778 26.1204 32.5778C24.8273 32.5778 24.1808 31.8019 24.1808 30.7675C24.1808 29.733 24.9566 28.9572 25.9911 28.9572C27.0255 28.9572 27.5428 29.6037 27.5428 30.7675V30.8968ZM26.7669 30.3795C26.7669 29.9916 26.5083 29.6037 25.8618 29.6037C25.3446 29.6037 24.9566 29.9916 24.8273 30.3795H26.7669Z" fill="white"/>
<path d="M33.3615 31.6724V32.3189C33.1029 32.5775 32.8443 32.5776 32.5857 32.5776C32.0684 32.5776 31.2926 32.3189 31.2926 31.2845V28.3104L32.0684 27.9225V28.9569H33.3615V29.6035H32.0684V31.2845C32.0684 31.8017 32.3271 31.931 32.715 31.931C32.8443 31.931 33.1029 31.8017 33.3615 31.6724Z" fill="white"/>
<path d="M38.0167 30.8968H35.3012C35.4305 31.5433 35.8184 31.9312 36.5943 31.9312C36.9822 31.9312 37.3701 31.8019 37.758 31.5433V32.3191C37.4994 32.4484 36.9822 32.5778 36.5943 32.5778C35.3012 32.5778 34.6547 31.8019 34.6547 30.7675C34.6547 29.733 35.4305 28.9572 36.465 28.9572C37.4994 28.9572 38.0167 29.6037 38.0167 30.7675V30.8968ZM37.2408 30.3795C37.2408 29.9916 36.9822 29.6037 36.3357 29.6037C35.8184 29.6037 35.4305 29.9916 35.3012 30.3795H37.2408Z" fill="white"/>
<path d="M44.3525 30.1209V32.5777H43.5766V30.5088C43.5766 29.8622 43.1887 29.7329 42.9301 29.7329C42.6715 29.7329 42.1542 29.8622 42.1542 30.5088V32.5777H41.3784V30.5088C41.3784 29.8622 40.9905 29.7329 40.7319 29.7329C40.4733 29.7329 39.956 29.8622 39.956 30.5088V32.5777H39.1802V29.0864H39.956V29.6036C40.0853 29.345 40.4733 29.0864 40.8612 29.0864C41.3784 29.0864 41.7663 29.345 41.8956 29.7329C42.1542 29.345 42.4129 29.0864 42.9301 29.0864C43.8352 28.9571 44.3525 29.345 44.3525 30.1209Z" fill="white"/>
<path d="M49.7837 30.7675C49.7837 31.8019 49.1372 32.5778 48.1027 32.5778C47.5855 32.5778 47.1975 32.3191 46.9389 31.9312V34.0001H46.1631V28.9572H46.8096L46.9389 29.6037C47.1975 29.2158 47.5855 28.9572 48.232 28.9572C49.0078 28.9572 49.7837 29.733 49.7837 30.7675ZM49.0078 30.7675C49.0078 30.1209 48.4906 29.6037 47.8441 29.6037C47.1975 29.6037 46.6803 30.1209 46.6803 30.7675C46.6803 31.414 47.1975 31.9312 47.8441 31.9312C48.4906 31.9312 49.0078 31.414 49.0078 30.7675Z" fill="white"/>
<path d="M53.9213 31.5431C53.9213 32.319 53.2748 32.7069 52.3696 32.7069C51.8524 32.7069 51.4645 32.5776 51.0765 32.4483V31.6725C51.4645 31.9311 51.8524 32.0604 52.3696 32.0604C52.8868 32.0604 53.1455 31.9311 53.1455 31.6725C53.1455 31.0259 51.0765 31.4138 51.0765 30.1208C51.0765 29.3449 51.7231 29.0863 52.6282 29.0863C53.1455 29.0863 53.5334 29.2156 53.792 29.3449V29.9915C53.4041 29.7328 53.1455 29.6035 52.6282 29.6035C52.111 29.6035 51.8524 29.7328 51.8524 29.9915C51.8524 30.638 53.9213 30.1208 53.9213 31.5431Z" fill="white"/>
<path d="M56.2489 32.3189C56.2489 32.9654 55.7316 33.4827 55.0851 33.4827V33.0947C55.3437 33.0947 55.6023 32.8361 55.6023 32.7068C55.3437 32.7068 55.2144 32.4482 55.2144 32.1896C55.2144 31.931 55.473 31.6724 55.7316 31.6724C55.9902 31.6724 56.2489 31.8017 56.2489 32.3189Z" fill="white"/>
<path d="M63.361 30.2502V32.5778H62.5851V30.6381C62.5851 29.9916 62.1972 29.733 61.8093 29.733C61.4214 29.733 60.9041 29.9916 60.9041 30.6381V32.5778H60.1283V29.0865H60.9041V29.6037C61.0334 29.3451 61.4214 29.0865 62.0679 29.0865C62.7144 28.9571 63.361 29.4744 63.361 30.2502Z" fill="white"/>
<path d="M64.7832 30.7675C64.7832 29.733 65.559 28.9572 66.5935 28.9572C67.628 28.9572 68.4038 29.733 68.4038 30.7675C68.4038 31.8019 67.628 32.5778 66.5935 32.5778C65.559 32.5778 64.7832 31.8019 64.7832 30.7675ZM67.7573 30.7675C67.7573 30.1209 67.24 29.6037 66.5935 29.6037C65.947 29.6037 65.4297 30.1209 65.4297 30.7675C65.4297 31.414 65.947 31.9312 66.5935 31.9312C67.3694 31.9312 67.7573 31.414 67.7573 30.7675Z" fill="white"/>
<path d="M72.1537 31.6724V32.3189C71.8951 32.5775 71.6364 32.5776 71.2485 32.5776C70.7313 32.5776 69.9554 32.3189 69.9554 31.2845V28.3104L70.7313 27.9225V28.9569H72.0244V29.6035H70.7313V31.2845C70.7313 31.8017 70.9899 31.931 71.3778 31.931C71.6364 31.931 71.8951 31.8017 72.1537 31.6724Z" fill="white"/>
<path d="M74.8693 30.7675V31.9312H75.7745V32.5778H73.3176V31.9312H74.0935V29.733H73.3176V29.0865H74.74V29.733C74.9986 29.3451 75.5159 28.9572 76.1624 28.9572V29.9916C76.0331 29.8623 75.7745 29.8623 75.6452 29.8623C75.2572 29.733 74.8693 30.1209 74.8693 30.7675Z" fill="white"/>
<path d="M80.6882 30.8968H77.9727C78.102 31.5433 78.4899 31.9312 79.2658 31.9312C79.6537 31.9312 80.0416 31.8019 80.4296 31.5433V32.3191C80.1709 32.4484 79.6537 32.5778 79.2658 32.5778C77.9727 32.5778 77.3262 31.8019 77.3262 30.7675C77.3262 29.733 78.102 28.9572 79.1365 28.9572C80.1709 28.9572 80.6882 29.6037 80.6882 30.7675V30.8968ZM79.9123 30.3795C79.9123 29.9916 79.6537 29.6037 79.0072 29.6037C78.4899 29.6037 78.102 29.9916 77.9727 30.3795H79.9123Z" fill="white"/>
<path d="M88.1877 30.7675C88.1877 31.8019 87.5412 32.5778 86.5067 32.5778C85.9895 32.5778 85.6016 32.3191 85.343 31.9312V34.0001H84.5671V28.9572H85.2137L85.343 29.6037C85.6016 29.2158 85.9895 28.9572 86.6361 28.9572C87.4119 28.9572 88.1877 29.733 88.1877 30.7675ZM87.4119 30.7675C87.4119 30.1209 86.8947 29.6037 86.2481 29.6037C85.6016 29.6037 85.0844 30.1209 85.0844 30.7675C85.0844 31.414 85.6016 31.9312 86.2481 31.9312C86.8947 31.9312 87.4119 31.414 87.4119 30.7675Z" fill="white"/>
<path d="M91.0327 30.7675V31.9312H91.9378V32.5778H89.481V31.9312H90.2568V29.733H89.481V29.0865H90.9033V29.733C91.162 29.3451 91.6792 28.9572 92.3257 28.9572V29.9916C92.1964 29.8623 91.9378 29.8623 91.8085 29.8623C91.2913 29.733 91.0327 30.1209 91.0327 30.7675Z" fill="white"/>
<path d="M95.6877 31.9313V32.5778H93.4895V31.9313H94.2653V29.7331H93.4895V29.0865H94.9119V31.9313H95.6877ZM94.0067 27.7935C94.0067 27.5349 94.2653 27.2762 94.524 27.2762C94.7826 27.2762 95.0412 27.5349 95.0412 27.7935C95.0412 28.0521 94.7826 28.3107 94.524 28.3107C94.2653 28.3107 94.0067 28.0521 94.0067 27.7935Z" fill="white"/>
<path d="M96.7222 30.7675C96.7222 29.733 97.498 28.9572 98.5325 28.9572C99.5669 28.9572 100.343 29.733 100.343 30.7675C100.343 31.8019 99.5669 32.5778 98.5325 32.5778C97.498 32.5778 96.7222 31.8019 96.7222 30.7675ZM99.6962 30.7675C99.6962 30.1209 99.179 29.6037 98.5325 29.6037C97.8859 29.6037 97.3687 30.1209 97.3687 30.7675C97.3687 31.414 97.8859 31.9312 98.5325 31.9312C99.179 31.9312 99.6962 31.414 99.6962 30.7675Z" fill="white"/>
<path d="M103.188 30.7675V31.9312H104.093V32.5778H101.636V31.9312H102.412V29.733H101.636V29.0865H103.058V29.733C103.317 29.3451 103.834 28.9572 104.481 28.9572V29.9916C104.351 29.8623 104.093 29.8623 103.963 29.8623C103.575 29.733 103.188 30.1209 103.188 30.7675Z" fill="white"/>
<path d="M107.843 31.9313V32.5778H105.644V31.9313H106.42V29.7331H105.644V29.0865H107.067V31.9313H107.843ZM106.291 27.7935C106.291 27.5349 106.55 27.2762 106.808 27.2762C107.067 27.2762 107.325 27.5349 107.325 27.7935C107.325 28.0521 107.067 28.3107 106.808 28.3107C106.55 28.3107 106.291 28.0521 106.291 27.7935Z" fill="white"/>
<path d="M111.205 31.6724V32.3189C110.946 32.5775 110.687 32.5776 110.429 32.5776C109.911 32.5776 109.136 32.3189 109.136 31.2845V28.3104L109.911 27.9225V28.9569H111.205V29.6035H109.911V31.2845C109.911 31.8017 110.17 31.931 110.558 31.931C110.687 31.931 111.075 31.8017 111.205 31.6724Z" fill="white"/>
<path d="M115.859 30.8968H113.144C113.273 31.5433 113.661 31.9313 114.437 31.9313C114.825 31.9313 115.213 31.8019 115.601 31.5433V32.3192C115.213 32.5778 114.825 32.5778 114.437 32.5778C113.144 32.5778 112.497 31.8019 112.497 30.7675C112.497 29.733 113.273 28.9572 114.308 28.9572C115.342 28.9572 115.859 29.6037 115.859 30.7675V30.8968ZM115.084 30.3796C115.084 29.9916 114.825 29.6037 114.178 29.6037C113.661 29.6037 113.273 29.9916 113.144 30.3796H115.084ZM114.437 28.3107H113.92L114.566 27.0176H115.601L114.437 28.3107Z" fill="white"/>
<path d="M117.153 32.1896C117.153 31.931 117.411 31.6724 117.67 31.6724C117.929 31.6724 118.187 31.931 118.187 32.1896C118.187 32.4482 117.929 32.7068 117.67 32.7068C117.411 32.5775 117.153 32.4482 117.153 32.1896Z" fill="white"/>
</svg>
